module gitlab.com/jimboylabs/deployer

go 1.21.1

require (
	github.com/pocketbase/pocketbase v0.19.4
	golang.org/x/sync v0.5.0
)

require (
	github.com/AlecAivazis/survey/v2 v2.3.7 // indirect
	github.com/asaskevich/govalidator v0.0.0-20230301143203-a9d515a09cc2 // indirect
	github.com/aws/aws-sdk-go v1.46.6 // indirect
	github.com/aws/aws-sdk-go-v2 v1.21.2 // indirect
	github.com/aws/aws-sdk-go-v2/aws/protocol/eventstream v1.4.14 // indirect
	github.com/aws/aws-sdk-go-v2/config v1.19.1 // indirect
	github.com/aws/aws-sdk-go-v2/credentials v1.13.43 // indirect
	github.com/aws/aws-sdk-go-v2/feature/ec2/imds v1.13.13 // indirect
	github.com/aws/aws-sdk-go-v2/feature/s3/manager v1.11.92 // indirect
	github.com/aws/aws-sdk-go-v2/internal/configsources v1.1.43 // indirect
	github.com/aws/aws-sdk-go-v2/internal/endpoints/v2 v2.4.37 // indirect
	github.com/aws/aws-sdk-go-v2/internal/ini v1.3.45 // indirect
	github.com/aws/aws-sdk-go-v2/internal/v4a v1.1.6 // indirect
	github.com/aws/aws-sdk-go-v2/service/internal/accept-encoding v1.9.15 // indirect
	github.com/aws/aws-sdk-go-v2/service/internal/checksum v1.1.38 // indirect
	github.com/aws/aws-sdk-go-v2/service/internal/presigned-url v1.9.37 // indirect
	github.com/aws/aws-sdk-go-v2/service/internal/s3shared v1.15.6 // indirect
	github.com/aws/aws-sdk-go-v2/service/s3 v1.40.2 // indirect
	github.com/aws/aws-sdk-go-v2/service/sso v1.15.2 // indirect
	github.com/aws/aws-sdk-go-v2/service/ssooidc v1.17.3 // indirect
	github.com/aws/aws-sdk-go-v2/service/sts v1.23.2 // indirect
	github.com/aws/smithy-go v1.15.0 // indirect
	github.com/disintegration/imaging v1.6.2 // indirect
	github.com/domodwyer/mailyak/v3 v3.6.2 // indirect
	github.com/dustin/go-humanize v1.0.1 // indirect
	github.com/fatih/color v1.15.0 // indirect
	github.com/gabriel-vasile/mimetype v1.4.3 // indirect
	github.com/ganigeorgiev/fexpr v0.3.0 // indirect
	github.com/go-ozzo/ozzo-validation/v4 v4.3.0 // indirect
	github.com/goccy/go-json v0.10.2 // indirect
	github.com/golang-jwt/jwt/v4 v4.5.0 // indirect
	github.com/golang/groupcache v0.0.0-20210331224755-41bb18bfe9da // indirect
	github.com/golang/protobuf v1.5.3 // indirect
	github.com/google/uuid v1.4.0 // indirect
	github.com/google/wire v0.5.0 // indirect
	github.com/googleapis/gax-go/v2 v2.12.0 // indirect
	github.com/inconshreveable/mousetrap v1.1.0 // indirect
	github.com/jmespath/go-jmespath v0.4.0 // indirect
	github.com/kballard/go-shellquote v0.0.0-20180428030007-95032a82bc51 // indirect
	github.com/labstack/echo/v5 v5.0.0-20230722203903-ec5b858dab61 // indirect
	github.com/mattn/go-colorable v0.1.13 // indirect
	github.com/mattn/go-isatty v0.0.20 // indirect
	github.com/mattn/go-sqlite3 v1.14.17 // indirect
	github.com/mgutz/ansi v0.0.0-20200706080929-d51e80ef957d // indirect
	github.com/pocketbase/dbx v1.10.1 // indirect
	github.com/remyoudompheng/bigfft v0.0.0-20230129092748-24d4a6f8daec // indirect
	github.com/spf13/cast v1.5.1 // indirect
	github.com/spf13/cobra v1.7.0 // indirect
	github.com/spf13/pflag v1.0.5 // indirect
	github.com/valyala/bytebufferpool v1.0.0 // indirect
	github.com/valyala/fasttemplate v1.2.2 // indirect
	go.opencensus.io v0.24.0 // indirect
	gocloud.dev v0.34.0 // indirect
	golang.org/x/crypto v0.15.0 // indirect
	golang.org/x/image v0.13.0 // indirect
	golang.org/x/mod v0.14.0 // indirect
	golang.org/x/net v0.18.0 // indirect
	golang.org/x/oauth2 v0.13.0 // indirect
	golang.org/x/sys v0.14.0 // indirect
	golang.org/x/term v0.14.0 // indirect
	golang.org/x/text v0.14.0 // indirect
	golang.org/x/time v0.3.0 // indirect
	golang.org/x/tools v0.15.0 // indirect
	golang.org/x/xerrors v0.0.0-20231012003039-104605ab7028 // indirect
	google.golang.org/api v0.148.0 // indirect
	google.golang.org/appengine v1.6.8 // indirect
	google.golang.org/genproto/googleapis/rpc v0.0.0-20231016165738-49dd2c1f3d0b // indirect
	google.golang.org/grpc v1.59.0 // indirect
	google.golang.org/protobuf v1.31.0 // indirect
	lukechampine.com/uint128 v1.3.0 // indirect
	modernc.org/cc/v3 v3.41.0 // indirect
	modernc.org/ccgo/v3 v3.16.15 // indirect
	modernc.org/libc v1.28.0 // indirect
	modernc.org/mathutil v1.6.0 // indirect
	modernc.org/memory v1.7.2 // indirect
	modernc.org/opt v0.1.3 // indirect
	modernc.org/sqlite v1.26.0 // indirect
	modernc.org/strutil v1.2.0 // indirect
	modernc.org/token v1.1.0 // indirect
)
